{
  "urls": ["cue_luckygems.ogg", "cue_luckygems.m4a", "cue_luckygems.mp4"],
  "sprite": {
    "silence": [0, 100, true],
    "sfx_countDown": [300.00000000000006, 3204.3537414965986],
    "sfx_featureStop1": [4500, 1714.3310657596373],
    "sfx_featureStop2": [6700, 1714.3310657596364],
    "sfx_featureStop3": [8900, 1688.5714285714287],
    "sfx_featureStop4": [11100, 1714.3310657596373],
    "sfx_featureStop5": [13300, 1714.3310657596373],
    "sfx_leprechaunFade": [15500.000000000002, 2439.4104308390024],
    "sfx_money": [18700.000000000004, 12680],
    "sfx_reelStop1": [31900.000000000004, 258.73015873015606],
    "sfx_reelStop2": [33100, 232.42630385487217],
    "sfx_reelStop3": [34300, 168.3446712018153],
    "sfx_reelStop4": [35500, 126.03174603174949],
    "sfx_reelStop5": [36700, 89.251700680272],
    "sfx_sym01win": [37900.00000000001, 1026.6666666666638],
    "sfx_sym02win": [40100, 1173.3333333333321],
    "sfx_sym03win": [42300, 1759.999999999998],
    "sfx_sym04win": [44499.99999999999, 2013.3333333333353],
    "sfx_sym05win": [47699.99999999999, 2066.66666666667],
    "sfx_sym06win": [50900, 2320.0000000000005],
    "sfx_sym07win": [54100, 2560.0000000000023],
    "sfx_sym08win": [57300.00000000001, 3293.3333333333367],
    "sfx_sym09win": [61500.00000000001, 3786.666666666669],
    "sfx_till": [65700, 843.4920634920644],
    "sfx_welcome": [66900, 1801.405895691616],
    "sfx_winAnnounce": [69100.00000000001, 2079.999999999998]
  }
}
