{
  "frames": {
    "counter_win_ .png": {
      "frame": { "x": 110, "y": 154, "w": 3, "h": 3 },
      "rotated": false,
      "trimmed": true,
      "spriteSourceSize": { "x": 0, "y": 0, "w": 3, "h": 3 },
      "sourceSize": { "w": 24, "h": 48 }
    },
    "counter_win_+.png": {
      "frame": { "x": 78, "y": 46, "w": 38, "h": 40 },
      "rotated": false,
      "trimmed": true,
      "spriteSourceSize": { "x": 5, "y": 3, "w": 38, "h": 40 },
      "sourceSize": { "w": 48, "h": 48 }
    },
    "counter_win_,.png": {
      "frame": { "x": 72, "y": 217, "w": 18, "h": 24 },
      "rotated": false,
      "trimmed": true,
      "spriteSourceSize": { "x": 3, "y": 22, "w": 18, "h": 24 },
      "sourceSize": { "w": 24, "h": 48 }
    },
    "counter_win_-.png": {
      "frame": { "x": 72, "y": 200, "w": 30, "h": 15 },
      "rotated": false,
      "trimmed": true,
      "spriteSourceSize": { "x": 9, "y": 16, "w": 30, "h": 15 },
      "sourceSize": { "w": 48, "h": 48 }
    },
    "counter_win_..png": {
      "frame": { "x": 92, "y": 217, "w": 15, "h": 17 },
      "rotated": false,
      "trimmed": true,
      "spriteSourceSize": { "x": 5, "y": 29, "w": 15, "h": 17 },
      "sourceSize": { "w": 24, "h": 48 }
    },
    "counter_win_0.png": {
      "frame": { "x": 0, "y": 93, "w": 36, "h": 45 },
      "rotated": false,
      "trimmed": true,
      "spriteSourceSize": { "x": 6, "y": 1, "w": 36, "h": 45 },
      "sourceSize": { "w": 48, "h": 48 }
    },
    "counter_win_1.png": {
      "frame": { "x": 86, "y": 0, "w": 30, "h": 44 },
      "rotated": false,
      "trimmed": true,
      "spriteSourceSize": { "x": 9, "y": 1, "w": 30, "h": 44 },
      "sourceSize": { "w": 48, "h": 48 }
    },
    "counter_win_2.png": {
      "frame": { "x": 36, "y": 187, "w": 34, "h": 44 },
      "rotated": false,
      "trimmed": true,
      "spriteSourceSize": { "x": 7, "y": 1, "w": 34, "h": 44 },
      "sourceSize": { "w": 48, "h": 48 }
    },
    "counter_win_3.png": {
      "frame": { "x": 0, "y": 187, "w": 34, "h": 45 },
      "rotated": false,
      "trimmed": true,
      "spriteSourceSize": { "x": 7, "y": 1, "w": 34, "h": 45 },
      "sourceSize": { "w": 48, "h": 48 }
    },
    "counter_win_4.png": {
      "frame": { "x": 46, "y": 0, "w": 38, "h": 44 },
      "rotated": false,
      "trimmed": true,
      "spriteSourceSize": { "x": 5, "y": 1, "w": 38, "h": 44 },
      "sourceSize": { "w": 48, "h": 48 }
    },
    "counter_win_5.png": {
      "frame": { "x": 38, "y": 140, "w": 34, "h": 45 },
      "rotated": false,
      "trimmed": true,
      "spriteSourceSize": { "x": 7, "y": 1, "w": 34, "h": 45 },
      "sourceSize": { "w": 48, "h": 48 }
    },
    "counter_win_6.png": {
      "frame": { "x": 40, "y": 46, "w": 36, "h": 45 },
      "rotated": false,
      "trimmed": true,
      "spriteSourceSize": { "x": 6, "y": 1, "w": 36, "h": 45 },
      "sourceSize": { "w": 48, "h": 48 }
    },
    "counter_win_7.png": {
      "frame": { "x": 74, "y": 154, "w": 34, "h": 44 },
      "rotated": false,
      "trimmed": true,
      "spriteSourceSize": { "x": 7, "y": 1, "w": 34, "h": 44 },
      "sourceSize": { "w": 48, "h": 48 }
    },
    "counter_win_8.png": {
      "frame": { "x": 0, "y": 46, "w": 38, "h": 45 },
      "rotated": false,
      "trimmed": true,
      "spriteSourceSize": { "x": 5, "y": 1, "w": 38, "h": 45 },
      "sourceSize": { "w": 48, "h": 48 }
    },
    "counter_win_9.png": {
      "frame": { "x": 0, "y": 140, "w": 36, "h": 45 },
      "rotated": false,
      "trimmed": true,
      "spriteSourceSize": { "x": 6, "y": 1, "w": 36, "h": 45 },
      "sourceSize": { "w": 48, "h": 48 }
    },
    "counter_win_=.png": {
      "frame": { "x": 75, "y": 125, "w": 38, "h": 27 },
      "rotated": false,
      "trimmed": true,
      "spriteSourceSize": { "x": 5, "y": 10, "w": 38, "h": 27 },
      "sourceSize": { "w": 48, "h": 48 }
    },
    "counter_win_k.png": {
      "frame": { "x": 38, "y": 93, "w": 35, "h": 45 },
      "rotated": false,
      "trimmed": true,
      "spriteSourceSize": { "x": 7, "y": 1, "w": 35, "h": 45 },
      "sourceSize": { "w": 48, "h": 48 }
    },
    "counter_win_M.png": {
      "frame": { "x": 0, "y": 0, "w": 44, "h": 44 },
      "rotated": false,
      "trimmed": true,
      "spriteSourceSize": { "x": 1, "y": 2, "w": 44, "h": 44 },
      "sourceSize": { "w": 48, "h": 48 }
    },
    "counter_win_x.png": {
      "frame": { "x": 78, "y": 88, "w": 38, "h": 35 },
      "rotated": false,
      "trimmed": true,
      "spriteSourceSize": { "x": 5, "y": 6, "w": 38, "h": 35 },
      "sourceSize": { "w": 48, "h": 48 }
    }
  },
  "meta": {
    "app": "https://www.codeandweb.com/texturepacker",
    "version": "1.0",
    "image": "counter_win_atlas_d-720_0.png",
    "format": "RGBA8888",
    "size": { "w": 116, "h": 241 },
    "smartupdate": "$TexturePacker:SmartUpdate:bac48ce503b8b11870b5fe11d844601e:5d082c644c2a6b52ce047322da0ee084:38f511a3a1a9b2e2c525388cc20434ce$"
  }
}
