{
  "frames": {
    "counter_gems_0.png": {
      "frame": { "x": 0, "y": 0, "w": 22, "h": 24 },
      "rotated": false,
      "trimmed": true,
      "spriteSourceSize": { "x": 1, "y": 1, "w": 22, "h": 24 },
      "sourceSize": { "w": 25, "h": 25 }
    },
    "counter_gems_1.png": {
      "frame": { "x": 71, "y": 0, "w": 15, "h": 25 },
      "rotated": false,
      "trimmed": true,
      "spriteSourceSize": { "x": 4, "y": 0, "w": 15, "h": 25 },
      "sourceSize": { "w": 25, "h": 25 }
    },
    "counter_gems_2.png": {
      "frame": { "x": 88, "y": 0, "w": 20, "h": 24 },
      "rotated": false,
      "trimmed": true,
      "spriteSourceSize": { "x": 2, "y": 1, "w": 20, "h": 24 },
      "sourceSize": { "w": 25, "h": 25 }
    },
    "counter_gems_3.png": {
      "frame": { "x": 48, "y": 0, "w": 21, "h": 24 },
      "rotated": false,
      "trimmed": true,
      "spriteSourceSize": { "x": 2, "y": 1, "w": 21, "h": 24 },
      "sourceSize": { "w": 25, "h": 25 }
    },
    "counter_gems_4.png": {
      "frame": { "x": 24, "y": 0, "w": 22, "h": 24 },
      "rotated": false,
      "trimmed": true,
      "spriteSourceSize": { "x": 1, "y": 1, "w": 22, "h": 24 },
      "sourceSize": { "w": 25, "h": 25 }
    },
    "counter_gems_5.png": {
      "frame": { "x": 88, "y": 26, "w": 20, "h": 24 },
      "rotated": false,
      "trimmed": true,
      "spriteSourceSize": { "x": 2, "y": 1, "w": 20, "h": 24 },
      "sourceSize": { "w": 25, "h": 25 }
    },
    "counter_gems_6.png": {
      "frame": { "x": 67, "y": 27, "w": 19, "h": 24 },
      "rotated": false,
      "trimmed": true,
      "spriteSourceSize": { "x": 2, "y": 1, "w": 19, "h": 24 },
      "sourceSize": { "w": 25, "h": 25 }
    },
    "counter_gems_7.png": {
      "frame": { "x": 23, "y": 26, "w": 20, "h": 24 },
      "rotated": false,
      "trimmed": true,
      "spriteSourceSize": { "x": 3, "y": 1, "w": 20, "h": 24 },
      "sourceSize": { "w": 25, "h": 25 }
    },
    "counter_gems_8.png": {
      "frame": { "x": 0, "y": 26, "w": 21, "h": 24 },
      "rotated": false,
      "trimmed": true,
      "spriteSourceSize": { "x": 1, "y": 1, "w": 21, "h": 24 },
      "sourceSize": { "w": 25, "h": 25 }
    },
    "counter_gems_9.png": {
      "frame": { "x": 45, "y": 26, "w": 20, "h": 24 },
      "rotated": false,
      "trimmed": true,
      "spriteSourceSize": { "x": 2, "y": 1, "w": 20, "h": 24 },
      "sourceSize": { "w": 25, "h": 25 }
    }
  },
  "meta": {
    "app": "https://www.codeandweb.com/texturepacker",
    "version": "1.0",
    "image": "counter_gems_atlas_d-720_0.png",
    "format": "RGBA8888",
    "size": { "w": 108, "h": 51 },
    "smartupdate": "$TexturePacker:SmartUpdate:4daf982016f5c2c6b5ee2e273389710a:305fef16738ec6125a6b4c1b4b833a96:2aa5d8dae58f04f303b915025622845f$"
  }
}
