{
  "alpha": {
    "start": 0.4,
    "end": 0
  },
  "scale": {
    "start": 0.5,
    "end": 0.1,
    "minimumScaleMultiplier": 1
  },
  "color": {
    "start": "#9af31a",
    "end": "#7cc73c"
  },
  "speed": {
    "start": 10,
    "end": 10,
    "minimumSpeedMultiplier": 1
  },
  "acceleration": {
    "x": 0,
    "y": 0
  },
  "maxSpeed": 0,
  "startRotation": {
    "min": 0,
    "max": 360
  },
  "noRotation": false,
  "rotationSpeed": {
    "min": 0,
    "max": 0
  },
  "lifetime": {
    "min": 2,
    "max": 1.8
  },
  "blendMode": "add",
  "frequency": 0.02,
  "emitterLifetime": -1,
  "maxParticles": 600,
  "pos": {
    "x": 0.5,
    "y": 0.5
  },
  "addAtBack": false,
  "spawnType": "rect",
  "spawnRect": {
    "x": -500,
    "y": -50,
    "w": 1000,
    "h": 100
  }
}
