{
  "frames": {
    "btn_autoplay.png": {
      "frame": { "x": 1878, "y": 426, "w": 131, "h": 408 },
      "rotated": false,
      "trimmed": false,
      "spriteSourceSize": { "x": 0, "y": 0, "w": 131, "h": 408 },
      "sourceSize": { "w": 131, "h": 408 },
      "pivot": { "x": 0.5, "y": 0.5 }
    },
    "btn_autoplay_pause.png": {
      "frame": { "x": 1878, "y": 838, "w": 131, "h": 408 },
      "rotated": false,
      "trimmed": false,
      "spriteSourceSize": { "x": 0, "y": 0, "w": 131, "h": 408 },
      "sourceSize": { "w": 131, "h": 408 },
      "pivot": { "x": 0.5, "y": 0.5 }
    },
    "btn_autostart_fill.png": {
      "frame": { "x": 0, "y": 1652, "w": 372, "h": 372 },
      "rotated": false,
      "trimmed": false,
      "spriteSourceSize": { "x": 0, "y": 0, "w": 372, "h": 372 },
      "sourceSize": { "w": 372, "h": 372 },
      "pivot": { "x": 0.5, "y": 0.5 }
    },
    "btn_autostart_stop.png": {
      "frame": { "x": 1126, "y": 0, "w": 372, "h": 1488 },
      "rotated": false,
      "trimmed": false,
      "spriteSourceSize": { "x": 0, "y": 0, "w": 372, "h": 1488 },
      "sourceSize": { "w": 372, "h": 1488 },
      "pivot": { "x": 0.5, "y": 0.5 }
    },
    "btn_autostart_stop2.png": {
      "frame": { "x": 1878, "y": 1250, "w": 131, "h": 408 },
      "rotated": false,
      "trimmed": false,
      "spriteSourceSize": { "x": 0, "y": 0, "w": 131, "h": 408 },
      "sourceSize": { "w": 131, "h": 408 },
      "pivot": { "x": 0.5, "y": 0.5 }
    },
    "btn_blank.png": {
      "frame": { "x": 582, "y": 1652, "w": 131, "h": 408 },
      "rotated": false,
      "trimmed": false,
      "spriteSourceSize": { "x": 0, "y": 0, "w": 131, "h": 408 },
      "sourceSize": { "w": 131, "h": 408 },
      "pivot": { "x": 0.5, "y": 0.5 }
    },
    "btn_collect.png": {
      "frame": { "x": 0, "y": 2028, "w": 193, "h": 308 },
      "rotated": false,
      "trimmed": false,
      "spriteSourceSize": { "x": 0, "y": 0, "w": 193, "h": 308 },
      "sourceSize": { "w": 193, "h": 308 },
      "pivot": { "x": 0.5, "y": 0.5 }
    },
    "btn_fastspin_ac.png": {
      "frame": { "x": 376, "y": 1652, "w": 202, "h": 138 },
      "rotated": false,
      "trimmed": false,
      "spriteSourceSize": { "x": 0, "y": 0, "w": 202, "h": 138 },
      "sourceSize": { "w": 202, "h": 138 },
      "pivot": { "x": 0.5, "y": 0.5 }
    },
    "btn_fastspin_def.png": {
      "frame": { "x": 376, "y": 1794, "w": 202, "h": 138 },
      "rotated": false,
      "trimmed": false,
      "spriteSourceSize": { "x": 0, "y": 0, "w": 202, "h": 138 },
      "sourceSize": { "w": 202, "h": 138 },
      "pivot": { "x": 0.5, "y": 0.5 }
    },
    "btn_fastspin_hov.png": {
      "frame": { "x": 376, "y": 1652, "w": 202, "h": 138 },
      "rotated": false,
      "trimmed": false,
      "spriteSourceSize": { "x": 0, "y": 0, "w": 202, "h": 138 },
      "sourceSize": { "w": 202, "h": 138 },
      "pivot": { "x": 0.5, "y": 0.5 }
    },
    "btn_fastspin_un.png": {
      "frame": { "x": 376, "y": 1936, "w": 202, "h": 138 },
      "rotated": false,
      "trimmed": false,
      "spriteSourceSize": { "x": 0, "y": 0, "w": 202, "h": 138 },
      "sourceSize": { "w": 202, "h": 138 },
      "pivot": { "x": 0.5, "y": 0.5 }
    },
    "btn_freespin.png": {
      "frame": { "x": 752, "y": 160, "w": 294, "h": 1176 },
      "rotated": false,
      "trimmed": false,
      "spriteSourceSize": { "x": 0, "y": 0, "w": 294, "h": 1176 },
      "sourceSize": { "w": 294, "h": 1176 },
      "pivot": { "x": 0.5, "y": 0.5 }
    },
    "btn_freespin_green.png": {
      "frame": { "x": 0, "y": 2340, "w": 184, "h": 736 },
      "rotated": false,
      "trimmed": false,
      "spriteSourceSize": { "x": 0, "y": 0, "w": 184, "h": 736 },
      "sourceSize": { "w": 184, "h": 736 },
      "pivot": { "x": 0.5, "y": 0.5 }
    },
    "btn_home.png": {
      "frame": { "x": 582, "y": 2064, "w": 131, "h": 408 },
      "rotated": false,
      "trimmed": false,
      "spriteSourceSize": { "x": 0, "y": 0, "w": 131, "h": 408 },
      "sourceSize": { "w": 131, "h": 408 },
      "pivot": { "x": 0.5, "y": 0.5 }
    },
    "btn_infinite.png": {
      "frame": { "x": 1004, "y": 1340, "w": 100, "h": 400 },
      "rotated": false,
      "trimmed": false,
      "spriteSourceSize": { "x": 0, "y": 0, "w": 100, "h": 400 },
      "sourceSize": { "w": 100, "h": 400 },
      "pivot": { "x": 0.5, "y": 0.5 }
    },
    "btn_maxbet_ac.png": {
      "frame": { "x": 1878, "y": 0, "w": 164, "h": 138 },
      "rotated": false,
      "trimmed": false,
      "spriteSourceSize": { "x": 0, "y": 0, "w": 164, "h": 138 },
      "sourceSize": { "w": 164, "h": 138 },
      "pivot": { "x": 0.5, "y": 0.5 }
    },
    "btn_maxbet_def.png": {
      "frame": { "x": 1878, "y": 142, "w": 164, "h": 138 },
      "rotated": false,
      "trimmed": false,
      "spriteSourceSize": { "x": 0, "y": 0, "w": 164, "h": 138 },
      "sourceSize": { "w": 164, "h": 138 },
      "pivot": { "x": 0.5, "y": 0.5 }
    },
    "btn_maxbet_hov.png": {
      "frame": { "x": 1878, "y": 0, "w": 164, "h": 138 },
      "rotated": false,
      "trimmed": false,
      "spriteSourceSize": { "x": 0, "y": 0, "w": 164, "h": 138 },
      "sourceSize": { "w": 164, "h": 138 },
      "pivot": { "x": 0.5, "y": 0.5 }
    },
    "btn_maxbet_un.png": {
      "frame": { "x": 1878, "y": 284, "w": 164, "h": 138 },
      "rotated": false,
      "trimmed": false,
      "spriteSourceSize": { "x": 0, "y": 0, "w": 164, "h": 138 },
      "sourceSize": { "w": 164, "h": 138 },
      "pivot": { "x": 0.5, "y": 0.5 }
    },
    "btn_menu.png": {
      "frame": { "x": 752, "y": 1340, "w": 248, "h": 992 },
      "rotated": false,
      "trimmed": false,
      "spriteSourceSize": { "x": 0, "y": 0, "w": 248, "h": 992 },
      "sourceSize": { "w": 248, "h": 992 },
      "pivot": { "x": 0.5, "y": 0.5 }
    },
    "btn_minus.png": {
      "frame": { "x": 1050, "y": 160, "w": 68, "h": 400 },
      "rotated": false,
      "trimmed": false,
      "spriteSourceSize": { "x": 0, "y": 0, "w": 68, "h": 400 },
      "sourceSize": { "w": 68, "h": 400 },
      "pivot": { "x": 0.5, "y": 0.5 }
    },
    "btn_plus.png": {
      "frame": { "x": 1050, "y": 564, "w": 68, "h": 400 },
      "rotated": false,
      "trimmed": false,
      "spriteSourceSize": { "x": 0, "y": 0, "w": 68, "h": 400 },
      "sourceSize": { "w": 68, "h": 400 },
      "pivot": { "x": 0.5, "y": 0.5 }
    },
    "btn_quick_menu_bar_close.png": {
      "frame": { "x": 467, "y": 2078, "w": 85, "h": 552 },
      "rotated": false,
      "trimmed": false,
      "spriteSourceSize": { "x": 0, "y": 0, "w": 85, "h": 552 },
      "sourceSize": { "w": 85, "h": 552 },
      "pivot": { "x": 0.5, "y": 0.5 }
    },
    "btn_quick_menu_bar_open.png": {
      "frame": { "x": 0, "y": 3080, "w": 85, "h": 552 },
      "rotated": false,
      "trimmed": false,
      "spriteSourceSize": { "x": 0, "y": 0, "w": 85, "h": 552 },
      "sourceSize": { "w": 85, "h": 552 },
      "pivot": { "x": 0.5, "y": 0.5 }
    },
    "btn_settings.png": {
      "frame": { "x": 197, "y": 2028, "w": 131, "h": 408 },
      "rotated": false,
      "trimmed": false,
      "spriteSourceSize": { "x": 0, "y": 0, "w": 131, "h": 408 },
      "sourceSize": { "w": 131, "h": 408 },
      "pivot": { "x": 0.5, "y": 0.5 }
    },
    "btn_shot.png": {
      "frame": { "x": 1502, "y": 0, "w": 372, "h": 1488 },
      "rotated": false,
      "trimmed": false,
      "spriteSourceSize": { "x": 0, "y": 0, "w": 372, "h": 1488 },
      "sourceSize": { "w": 372, "h": 1488 },
      "pivot": { "x": 0.5, "y": 0.5 }
    },
    "btn_sound.png": {
      "frame": { "x": 332, "y": 2078, "w": 131, "h": 408 },
      "rotated": false,
      "trimmed": false,
      "spriteSourceSize": { "x": 0, "y": 0, "w": 131, "h": 408 },
      "sourceSize": { "w": 131, "h": 408 },
      "pivot": { "x": 0.5, "y": 0.5 }
    },
    "btn_sound_off.png": {
      "frame": { "x": 188, "y": 2440, "w": 131, "h": 408 },
      "rotated": false,
      "trimmed": false,
      "spriteSourceSize": { "x": 0, "y": 0, "w": 131, "h": 408 },
      "sourceSize": { "w": 131, "h": 408 },
      "pivot": { "x": 0.5, "y": 0.5 }
    },
    "btn_spin.png": {
      "frame": { "x": 0, "y": 160, "w": 372, "h": 1488 },
      "rotated": false,
      "trimmed": false,
      "spriteSourceSize": { "x": 0, "y": 0, "w": 372, "h": 1488 },
      "sourceSize": { "w": 372, "h": 1488 },
      "pivot": { "x": 0.5, "y": 0.5 }
    },
    "btn_stopspin.png": {
      "frame": { "x": 376, "y": 160, "w": 372, "h": 1488 },
      "rotated": false,
      "trimmed": false,
      "spriteSourceSize": { "x": 0, "y": 0, "w": 372, "h": 1488 },
      "sourceSize": { "w": 372, "h": 1488 },
      "pivot": { "x": 0.5, "y": 0.5 }
    },
    "btn_superbet_green.png": {
      "frame": { "x": 582, "y": 1652, "w": 131, "h": 408 },
      "rotated": false,
      "trimmed": false,
      "spriteSourceSize": { "x": 0, "y": 0, "w": 131, "h": 408 },
      "sourceSize": { "w": 131, "h": 408 },
      "pivot": { "x": 0.5, "y": 0.5 }
    },
    "btn_superbet_orange.png": {
      "frame": { "x": 323, "y": 2490, "w": 131, "h": 408 },
      "rotated": false,
      "trimmed": false,
      "spriteSourceSize": { "x": 0, "y": 0, "w": 131, "h": 408 },
      "sourceSize": { "w": 131, "h": 408 },
      "pivot": { "x": 0.5, "y": 0.5 }
    },
    "btn_uparrow.png": {
      "frame": { "x": 1050, "y": 968, "w": 47, "h": 288 },
      "rotated": false,
      "trimmed": false,
      "spriteSourceSize": { "x": 0, "y": 0, "w": 47, "h": 288 },
      "sourceSize": { "w": 47, "h": 288 },
      "pivot": { "x": 0.5, "y": 0.5 }
    },
    "btn_winlines.png": {
      "frame": { "x": 188, "y": 2852, "w": 131, "h": 408 },
      "rotated": false,
      "trimmed": false,
      "spriteSourceSize": { "x": 0, "y": 0, "w": 131, "h": 408 },
      "sourceSize": { "w": 131, "h": 408 },
      "pivot": { "x": 0.5, "y": 0.5 }
    },
    "quick_menu_bar.png": {
      "frame": { "x": 0, "y": 0, "w": 559, "h": 156 },
      "rotated": false,
      "trimmed": false,
      "spriteSourceSize": { "x": 0, "y": 0, "w": 559, "h": 156 },
      "sourceSize": { "w": 559, "h": 156 },
      "pivot": { "x": 0.5, "y": 0.5 }
    },
    "quick_menu_bar_closed.png": {
      "frame": { "x": 563, "y": 0, "w": 559, "h": 156 },
      "rotated": false,
      "trimmed": false,
      "spriteSourceSize": { "x": 0, "y": 0, "w": 559, "h": 156 },
      "sourceSize": { "w": 559, "h": 156 },
      "pivot": { "x": 0.5, "y": 0.5 }
    }
  },
  "meta": {
    "app": "http://www.codeandweb.com/texturepacker",
    "version": "1.0",
    "image": "buttons_atlas_m-1080_0.png",
    "format": "INDEXED",
    "size": { "w": 2048, "h": 4096 },
    "scale": "1",
    "smartupdate": "$TexturePacker:SmartUpdate:98322fdee1d7026001a422fdf4c2d645:4e974d91a10b304135246a60c7d1e46b:4fd73796b34d336eaecdc3e14da1ff02$"
  }
}
