{
  "frames": {
    "sym_01_blur.png": {
      "frame": { "x": 0, "y": 0, "w": 160, "h": 160 },
      "rotated": false,
      "trimmed": false,
      "spriteSourceSize": { "x": 0, "y": 0, "w": 160, "h": 160 },
      "sourceSize": { "w": 160, "h": 160 }
    },
    "sym_01_regular.png": {
      "frame": { "x": 324, "y": 486, "w": 160, "h": 133 },
      "rotated": false,
      "trimmed": false,
      "spriteSourceSize": { "x": 0, "y": 0, "w": 160, "h": 133 },
      "sourceSize": { "w": 160, "h": 133 }
    },
    "sym_02_blur.png": {
      "frame": { "x": 162, "y": 0, "w": 160, "h": 160 },
      "rotated": false,
      "trimmed": false,
      "spriteSourceSize": { "x": 0, "y": 0, "w": 160, "h": 160 },
      "sourceSize": { "w": 160, "h": 160 }
    },
    "sym_02_regular.png": {
      "frame": { "x": 324, "y": 621, "w": 160, "h": 133 },
      "rotated": false,
      "trimmed": false,
      "spriteSourceSize": { "x": 0, "y": 0, "w": 160, "h": 133 },
      "sourceSize": { "w": 160, "h": 133 }
    },
    "sym_03_blur.png": {
      "frame": { "x": 324, "y": 0, "w": 160, "h": 160 },
      "rotated": false,
      "trimmed": false,
      "spriteSourceSize": { "x": 0, "y": 0, "w": 160, "h": 160 },
      "sourceSize": { "w": 160, "h": 160 }
    },
    "sym_03_regular.png": {
      "frame": { "x": 0, "y": 635, "w": 160, "h": 133 },
      "rotated": false,
      "trimmed": false,
      "spriteSourceSize": { "x": 0, "y": 0, "w": 160, "h": 133 },
      "sourceSize": { "w": 160, "h": 133 }
    },
    "sym_04_blur.png": {
      "frame": { "x": 0, "y": 162, "w": 160, "h": 160 },
      "rotated": false,
      "trimmed": false,
      "spriteSourceSize": { "x": 0, "y": 0, "w": 160, "h": 160 },
      "sourceSize": { "w": 160, "h": 160 }
    },
    "sym_04_regular.png": {
      "frame": { "x": 162, "y": 635, "w": 160, "h": 133 },
      "rotated": false,
      "trimmed": false,
      "spriteSourceSize": { "x": 0, "y": 0, "w": 160, "h": 133 },
      "sourceSize": { "w": 160, "h": 133 }
    },
    "sym_05_blur.png": {
      "frame": { "x": 162, "y": 162, "w": 160, "h": 160 },
      "rotated": false,
      "trimmed": false,
      "spriteSourceSize": { "x": 0, "y": 0, "w": 160, "h": 160 },
      "sourceSize": { "w": 160, "h": 160 }
    },
    "sym_05_regular.png": {
      "frame": { "x": 324, "y": 756, "w": 160, "h": 133 },
      "rotated": false,
      "trimmed": false,
      "spriteSourceSize": { "x": 0, "y": 0, "w": 160, "h": 133 },
      "sourceSize": { "w": 160, "h": 133 }
    },
    "sym_06_blur.png": {
      "frame": { "x": 324, "y": 162, "w": 160, "h": 160 },
      "rotated": false,
      "trimmed": false,
      "spriteSourceSize": { "x": 0, "y": 0, "w": 160, "h": 160 },
      "sourceSize": { "w": 160, "h": 160 }
    },
    "sym_06_regular.png": {
      "frame": { "x": 0, "y": 770, "w": 160, "h": 133 },
      "rotated": false,
      "trimmed": false,
      "spriteSourceSize": { "x": 0, "y": 0, "w": 160, "h": 133 },
      "sourceSize": { "w": 160, "h": 133 }
    },
    "sym_07_blur.png": {
      "frame": { "x": 0, "y": 324, "w": 160, "h": 160 },
      "rotated": false,
      "trimmed": false,
      "spriteSourceSize": { "x": 0, "y": 0, "w": 160, "h": 160 },
      "sourceSize": { "w": 160, "h": 160 }
    },
    "sym_07_regular.png": {
      "frame": { "x": 162, "y": 770, "w": 160, "h": 133 },
      "rotated": false,
      "trimmed": false,
      "spriteSourceSize": { "x": 0, "y": 0, "w": 160, "h": 133 },
      "sourceSize": { "w": 160, "h": 133 }
    },
    "sym_08_blur.png": {
      "frame": { "x": 162, "y": 324, "w": 160, "h": 160 },
      "rotated": false,
      "trimmed": false,
      "spriteSourceSize": { "x": 0, "y": 0, "w": 160, "h": 160 },
      "sourceSize": { "w": 160, "h": 160 }
    },
    "sym_08_regular.png": {
      "frame": { "x": 324, "y": 891, "w": 160, "h": 133 },
      "rotated": false,
      "trimmed": false,
      "spriteSourceSize": { "x": 0, "y": 0, "w": 160, "h": 133 },
      "sourceSize": { "w": 160, "h": 133 }
    },
    "sym_09_blur.png": {
      "frame": { "x": 324, "y": 324, "w": 160, "h": 160 },
      "rotated": false,
      "trimmed": false,
      "spriteSourceSize": { "x": 0, "y": 0, "w": 160, "h": 160 },
      "sourceSize": { "w": 160, "h": 160 }
    },
    "sym_09_regular.png": {
      "frame": { "x": 0, "y": 905, "w": 160, "h": 133 },
      "rotated": false,
      "trimmed": false,
      "spriteSourceSize": { "x": 0, "y": 0, "w": 160, "h": 133 },
      "sourceSize": { "w": 160, "h": 133 }
    },
    "sym_10_blur.png": {
      "frame": { "x": 0, "y": 486, "w": 160, "h": 147 },
      "rotated": false,
      "trimmed": false,
      "spriteSourceSize": { "x": 0, "y": 0, "w": 160, "h": 147 },
      "sourceSize": { "w": 160, "h": 147 }
    },
    "sym_10_regular.png": {
      "frame": { "x": 162, "y": 905, "w": 160, "h": 133 },
      "rotated": false,
      "trimmed": false,
      "spriteSourceSize": { "x": 0, "y": 0, "w": 160, "h": 133 },
      "sourceSize": { "w": 160, "h": 133 }
    },
    "sym_11_blur.png": {
      "frame": { "x": 324, "y": 1026, "w": 160, "h": 133 },
      "rotated": false,
      "trimmed": false,
      "spriteSourceSize": { "x": 0, "y": 0, "w": 160, "h": 133 },
      "sourceSize": { "w": 160, "h": 133 }
    },
    "sym_11_regular.png": {
      "frame": { "x": 0, "y": 1040, "w": 160, "h": 133 },
      "rotated": false,
      "trimmed": false,
      "spriteSourceSize": { "x": 0, "y": 0, "w": 160, "h": 133 },
      "sourceSize": { "w": 160, "h": 133 }
    },
    "sym_12_blur.png": {
      "frame": { "x": 162, "y": 486, "w": 160, "h": 147 },
      "rotated": false,
      "trimmed": false,
      "spriteSourceSize": { "x": 0, "y": 0, "w": 160, "h": 147 },
      "sourceSize": { "w": 160, "h": 147 }
    },
    "sym_12_regular.png": {
      "frame": { "x": 162, "y": 1040, "w": 160, "h": 133 },
      "rotated": false,
      "trimmed": false,
      "spriteSourceSize": { "x": 0, "y": 0, "w": 160, "h": 133 },
      "sourceSize": { "w": 160, "h": 133 }
    }
  },
  "meta": {
    "app": "https://www.codeandweb.com/texturepacker",
    "version": "1.0",
    "image": "symbols_atlas_m-720_0.png",
    "format": "RGBA8888",
    "size": { "w": 484, "h": 1173 },
    "scale": "0.66666",
    "smartupdate": "$TexturePacker:SmartUpdate:a43e07b8d3c53eb6bb1a26e30ccf756b:41f037a4793431aa26ca3b49a118ca2b:220d5b15c52d7cc35147601d9a29c9aa$"
  }
}
