{
  "frames": {
    "btn_autoplay.png": {
      "frame": { "x": 948, "y": 0, "w": 66, "h": 204 },
      "rotated": false,
      "trimmed": false,
      "spriteSourceSize": { "x": 0, "y": 0, "w": 66, "h": 204 },
      "sourceSize": { "w": 66, "h": 204 },
      "pivot": { "x": 0.5, "y": 0.5 }
    },
    "btn_autoplay_pause.png": {
      "frame": { "x": 948, "y": 208, "w": 66, "h": 204 },
      "rotated": false,
      "trimmed": false,
      "spriteSourceSize": { "x": 0, "y": 0, "w": 66, "h": 204 },
      "sourceSize": { "w": 66, "h": 204 },
      "pivot": { "x": 0.5, "y": 0.5 }
    },
    "btn_autostart_fill.png": {
      "frame": { "x": 0, "y": 830, "w": 186, "h": 186 },
      "rotated": false,
      "trimmed": false,
      "spriteSourceSize": { "x": 0, "y": 0, "w": 186, "h": 186 },
      "sourceSize": { "w": 186, "h": 186 },
      "pivot": { "x": 0.5, "y": 0.5 }
    },
    "btn_autostart_stop.png": {
      "frame": { "x": 568, "y": 0, "w": 186, "h": 744 },
      "rotated": false,
      "trimmed": false,
      "spriteSourceSize": { "x": 0, "y": 0, "w": 186, "h": 744 },
      "sourceSize": { "w": 186, "h": 744 },
      "pivot": { "x": 0.5, "y": 0.5 }
    },
    "btn_autostart_stop2.png": {
      "frame": { "x": 948, "y": 416, "w": 66, "h": 204 },
      "rotated": false,
      "trimmed": false,
      "spriteSourceSize": { "x": 0, "y": 0, "w": 66, "h": 204 },
      "sourceSize": { "w": 66, "h": 204 },
      "pivot": { "x": 0.5, "y": 0.5 }
    },
    "btn_blank.png": {
      "frame": { "x": 948, "y": 624, "w": 66, "h": 204 },
      "rotated": false,
      "trimmed": false,
      "spriteSourceSize": { "x": 0, "y": 0, "w": 66, "h": 204 },
      "sourceSize": { "w": 66, "h": 204 },
      "pivot": { "x": 0.5, "y": 0.5 }
    },
    "btn_collect.png": {
      "frame": { "x": 0, "y": 1020, "w": 97, "h": 154 },
      "rotated": false,
      "trimmed": false,
      "spriteSourceSize": { "x": 0, "y": 0, "w": 97, "h": 154 },
      "sourceSize": { "w": 97, "h": 154 },
      "pivot": { "x": 0.5, "y": 0.5 }
    },
    "btn_fastspin_ac.png": {
      "frame": { "x": 190, "y": 830, "w": 101, "h": 69 },
      "rotated": false,
      "trimmed": false,
      "spriteSourceSize": { "x": 0, "y": 0, "w": 101, "h": 69 },
      "sourceSize": { "w": 101, "h": 69 },
      "pivot": { "x": 0.5, "y": 0.5 }
    },
    "btn_fastspin_def.png": {
      "frame": { "x": 190, "y": 903, "w": 101, "h": 69 },
      "rotated": false,
      "trimmed": false,
      "spriteSourceSize": { "x": 0, "y": 0, "w": 101, "h": 69 },
      "sourceSize": { "w": 101, "h": 69 },
      "pivot": { "x": 0.5, "y": 0.5 }
    },
    "btn_fastspin_hov.png": {
      "frame": { "x": 190, "y": 830, "w": 101, "h": 69 },
      "rotated": false,
      "trimmed": false,
      "spriteSourceSize": { "x": 0, "y": 0, "w": 101, "h": 69 },
      "sourceSize": { "w": 101, "h": 69 },
      "pivot": { "x": 0.5, "y": 0.5 }
    },
    "btn_fastspin_un.png": {
      "frame": { "x": 190, "y": 976, "w": 101, "h": 69 },
      "rotated": false,
      "trimmed": false,
      "spriteSourceSize": { "x": 0, "y": 0, "w": 101, "h": 69 },
      "sourceSize": { "w": 101, "h": 69 },
      "pivot": { "x": 0.5, "y": 0.5 }
    },
    "btn_freespin.png": {
      "frame": { "x": 380, "y": 82, "w": 147, "h": 588 },
      "rotated": false,
      "trimmed": false,
      "spriteSourceSize": { "x": 0, "y": 0, "w": 147, "h": 588 },
      "sourceSize": { "w": 147, "h": 588 },
      "pivot": { "x": 0.5, "y": 0.5 }
    },
    "btn_freespin_green.png": {
      "frame": { "x": 187, "y": 1049, "w": 92, "h": 368 },
      "rotated": false,
      "trimmed": false,
      "spriteSourceSize": { "x": 0, "y": 0, "w": 92, "h": 368 },
      "sourceSize": { "w": 92, "h": 368 },
      "pivot": { "x": 0.5, "y": 0.5 }
    },
    "btn_home.png": {
      "frame": { "x": 295, "y": 830, "w": 66, "h": 204 },
      "rotated": false,
      "trimmed": false,
      "spriteSourceSize": { "x": 0, "y": 0, "w": 66, "h": 204 },
      "sourceSize": { "w": 66, "h": 204 },
      "pivot": { "x": 0.5, "y": 0.5 }
    },
    "btn_infinite.png": {
      "frame": { "x": 508, "y": 674, "w": 50, "h": 200 },
      "rotated": false,
      "trimmed": false,
      "spriteSourceSize": { "x": 0, "y": 0, "w": 50, "h": 200 },
      "sourceSize": { "w": 50, "h": 200 },
      "pivot": { "x": 0.5, "y": 0.5 }
    },
    "btn_maxbet_ac.png": {
      "frame": { "x": 101, "y": 1020, "w": 82, "h": 69 },
      "rotated": false,
      "trimmed": false,
      "spriteSourceSize": { "x": 0, "y": 0, "w": 82, "h": 69 },
      "sourceSize": { "w": 82, "h": 69 },
      "pivot": { "x": 0.5, "y": 0.5 }
    },
    "btn_maxbet_def.png": {
      "frame": { "x": 101, "y": 1093, "w": 82, "h": 69 },
      "rotated": false,
      "trimmed": false,
      "spriteSourceSize": { "x": 0, "y": 0, "w": 82, "h": 69 },
      "sourceSize": { "w": 82, "h": 69 },
      "pivot": { "x": 0.5, "y": 0.5 }
    },
    "btn_maxbet_hov.png": {
      "frame": { "x": 101, "y": 1020, "w": 82, "h": 69 },
      "rotated": false,
      "trimmed": false,
      "spriteSourceSize": { "x": 0, "y": 0, "w": 82, "h": 69 },
      "sourceSize": { "w": 82, "h": 69 },
      "pivot": { "x": 0.5, "y": 0.5 }
    },
    "btn_maxbet_un.png": {
      "frame": { "x": 101, "y": 1166, "w": 82, "h": 69 },
      "rotated": false,
      "trimmed": false,
      "spriteSourceSize": { "x": 0, "y": 0, "w": 82, "h": 69 },
      "sourceSize": { "w": 82, "h": 69 },
      "pivot": { "x": 0.5, "y": 0.5 }
    },
    "btn_menu.png": {
      "frame": { "x": 380, "y": 674, "w": 124, "h": 496 },
      "rotated": false,
      "trimmed": false,
      "spriteSourceSize": { "x": 0, "y": 0, "w": 124, "h": 496 },
      "sourceSize": { "w": 124, "h": 496 },
      "pivot": { "x": 0.5, "y": 0.5 }
    },
    "btn_minus.png": {
      "frame": { "x": 47, "y": 1655, "w": 34, "h": 200 },
      "rotated": false,
      "trimmed": false,
      "spriteSourceSize": { "x": 0, "y": 0, "w": 34, "h": 200 },
      "sourceSize": { "w": 34, "h": 200 },
      "pivot": { "x": 0.5, "y": 0.5 }
    },
    "btn_plus.png": {
      "frame": { "x": 85, "y": 1655, "w": 34, "h": 200 },
      "rotated": false,
      "trimmed": false,
      "spriteSourceSize": { "x": 0, "y": 0, "w": 34, "h": 200 },
      "sourceSize": { "w": 34, "h": 200 },
      "pivot": { "x": 0.5, "y": 0.5 }
    },
    "btn_quick_menu_bar_close.png": {
      "frame": { "x": 140, "y": 1239, "w": 43, "h": 276 },
      "rotated": false,
      "trimmed": false,
      "spriteSourceSize": { "x": 0, "y": 0, "w": 43, "h": 276 },
      "sourceSize": { "w": 43, "h": 276 },
      "pivot": { "x": 0.5, "y": 0.5 }
    },
    "btn_quick_menu_bar_open.png": {
      "frame": { "x": 0, "y": 1594, "w": 43, "h": 276 },
      "rotated": false,
      "trimmed": false,
      "spriteSourceSize": { "x": 0, "y": 0, "w": 43, "h": 276 },
      "sourceSize": { "w": 43, "h": 276 },
      "pivot": { "x": 0.5, "y": 0.5 }
    },
    "btn_settings.png": {
      "frame": { "x": 295, "y": 1038, "w": 66, "h": 204 },
      "rotated": false,
      "trimmed": false,
      "spriteSourceSize": { "x": 0, "y": 0, "w": 66, "h": 204 },
      "sourceSize": { "w": 66, "h": 204 },
      "pivot": { "x": 0.5, "y": 0.5 }
    },
    "btn_shot.png": {
      "frame": { "x": 758, "y": 0, "w": 186, "h": 744 },
      "rotated": false,
      "trimmed": false,
      "spriteSourceSize": { "x": 0, "y": 0, "w": 186, "h": 744 },
      "sourceSize": { "w": 186, "h": 744 },
      "pivot": { "x": 0.5, "y": 0.5 }
    },
    "btn_sound.png": {
      "frame": { "x": 0, "y": 1178, "w": 66, "h": 204 },
      "rotated": false,
      "trimmed": false,
      "spriteSourceSize": { "x": 0, "y": 0, "w": 66, "h": 204 },
      "sourceSize": { "w": 66, "h": 204 },
      "pivot": { "x": 0.5, "y": 0.5 }
    },
    "btn_sound_off.png": {
      "frame": { "x": 70, "y": 1239, "w": 66, "h": 204 },
      "rotated": false,
      "trimmed": false,
      "spriteSourceSize": { "x": 0, "y": 0, "w": 66, "h": 204 },
      "sourceSize": { "w": 66, "h": 204 },
      "pivot": { "x": 0.5, "y": 0.5 }
    },
    "btn_spin.png": {
      "frame": { "x": 0, "y": 82, "w": 186, "h": 744 },
      "rotated": false,
      "trimmed": false,
      "spriteSourceSize": { "x": 0, "y": 0, "w": 186, "h": 744 },
      "sourceSize": { "w": 186, "h": 744 },
      "pivot": { "x": 0.5, "y": 0.5 }
    },
    "btn_stopspin.png": {
      "frame": { "x": 190, "y": 82, "w": 186, "h": 744 },
      "rotated": false,
      "trimmed": false,
      "spriteSourceSize": { "x": 0, "y": 0, "w": 186, "h": 744 },
      "sourceSize": { "w": 186, "h": 744 },
      "pivot": { "x": 0.5, "y": 0.5 }
    },
    "btn_superbet_green.png": {
      "frame": { "x": 948, "y": 624, "w": 66, "h": 204 },
      "rotated": false,
      "trimmed": false,
      "spriteSourceSize": { "x": 0, "y": 0, "w": 66, "h": 204 },
      "sourceSize": { "w": 66, "h": 204 },
      "pivot": { "x": 0.5, "y": 0.5 }
    },
    "btn_superbet_orange.png": {
      "frame": { "x": 0, "y": 1386, "w": 66, "h": 204 },
      "rotated": false,
      "trimmed": false,
      "spriteSourceSize": { "x": 0, "y": 0, "w": 66, "h": 204 },
      "sourceSize": { "w": 66, "h": 204 },
      "pivot": { "x": 0.5, "y": 0.5 }
    },
    "btn_uparrow.png": {
      "frame": { "x": 531, "y": 82, "w": 24, "h": 144 },
      "rotated": false,
      "trimmed": false,
      "spriteSourceSize": { "x": 0, "y": 0, "w": 24, "h": 144 },
      "sourceSize": { "w": 24, "h": 144 },
      "pivot": { "x": 0.5, "y": 0.5 }
    },
    "btn_winlines.png": {
      "frame": { "x": 70, "y": 1447, "w": 66, "h": 204 },
      "rotated": false,
      "trimmed": false,
      "spriteSourceSize": { "x": 0, "y": 0, "w": 66, "h": 204 },
      "sourceSize": { "w": 66, "h": 204 },
      "pivot": { "x": 0.5, "y": 0.5 }
    },
    "quick_menu_bar.png": {
      "frame": { "x": 0, "y": 0, "w": 280, "h": 78 },
      "rotated": false,
      "trimmed": false,
      "spriteSourceSize": { "x": 0, "y": 0, "w": 280, "h": 78 },
      "sourceSize": { "w": 280, "h": 78 },
      "pivot": { "x": 0.5, "y": 0.5 }
    },
    "quick_menu_bar_closed.png": {
      "frame": { "x": 284, "y": 0, "w": 280, "h": 78 },
      "rotated": false,
      "trimmed": false,
      "spriteSourceSize": { "x": 0, "y": 0, "w": 280, "h": 78 },
      "sourceSize": { "w": 280, "h": 78 },
      "pivot": { "x": 0.5, "y": 0.5 }
    }
  },
  "meta": {
    "app": "http://www.codeandweb.com/texturepacker",
    "version": "1.0",
    "image": "buttons_atlas_m-540_0.png",
    "format": "INDEXED",
    "size": { "w": 1024, "h": 2048 },
    "scale": "0.5",
    "smartupdate": "$TexturePacker:SmartUpdate:98322fdee1d7026001a422fdf4c2d645:4e974d91a10b304135246a60c7d1e46b:4fd73796b34d336eaecdc3e14da1ff02$"
  }
}
