{
  "frames": {
    "Normal_Coins_IN_0000.png": {
      "frame": { "x": 242, "y": 110, "w": 14, "h": 14 },
      "rotated": false,
      "trimmed": true,
      "spriteSourceSize": { "x": 40, "y": 42, "w": 14, "h": 14 },
      "sourceSize": { "w": 117, "h": 109 },
      "pivot": { "x": 0.5, "y": 0.5 }
    },
    "Normal_Coins_IN_0002.png": {
      "frame": { "x": 209, "y": 170, "w": 17, "h": 19 },
      "rotated": false,
      "trimmed": true,
      "spriteSourceSize": { "x": 40, "y": 36, "w": 17, "h": 19 },
      "sourceSize": { "w": 117, "h": 109 },
      "pivot": { "x": 0.5, "y": 0.5 }
    },
    "Normal_Coins_IN_0004.png": {
      "frame": { "x": 209, "y": 141, "w": 28, "h": 25 },
      "rotated": false,
      "trimmed": true,
      "spriteSourceSize": { "x": 40, "y": 30, "w": 28, "h": 25 },
      "sourceSize": { "w": 117, "h": 109 },
      "pivot": { "x": 0.5, "y": 0.5 }
    },
    "Normal_Coins_IN_0006.png": {
      "frame": { "x": 209, "y": 110, "w": 29, "h": 27 },
      "rotated": false,
      "trimmed": true,
      "spriteSourceSize": { "x": 39, "y": 25, "w": 29, "h": 27 },
      "sourceSize": { "w": 117, "h": 109 },
      "pivot": { "x": 0.5, "y": 0.5 }
    },
    "Normal_Coins_IN_0008.png": {
      "frame": { "x": 216, "y": 78, "w": 31, "h": 28 },
      "rotated": false,
      "trimmed": true,
      "spriteSourceSize": { "x": 37, "y": 24, "w": 31, "h": 28 },
      "sourceSize": { "w": 117, "h": 109 },
      "pivot": { "x": 0.5, "y": 0.5 }
    },
    "Normal_Coins_IN_0010.png": {
      "frame": { "x": 216, "y": 43, "w": 33, "h": 31 },
      "rotated": false,
      "trimmed": true,
      "spriteSourceSize": { "x": 37, "y": 21, "w": 33, "h": 31 },
      "sourceSize": { "w": 117, "h": 109 },
      "pivot": { "x": 0.5, "y": 0.5 }
    },
    "Normal_Coins_IN_0012.png": {
      "frame": { "x": 216, "y": 0, "w": 38, "h": 39 },
      "rotated": false,
      "trimmed": true,
      "spriteSourceSize": { "x": 33, "y": 17, "w": 38, "h": 39 },
      "sourceSize": { "w": 117, "h": 109 },
      "pivot": { "x": 0.5, "y": 0.5 }
    },
    "Normal_Coins_IN_0014.png": {
      "frame": { "x": 208, "y": 193, "w": 48, "h": 43 },
      "rotated": false,
      "trimmed": true,
      "spriteSourceSize": { "x": 28, "y": 13, "w": 48, "h": 43 },
      "sourceSize": { "w": 117, "h": 109 },
      "pivot": { "x": 0.5, "y": 0.5 }
    },
    "Normal_Coins_IN_0016.png": {
      "frame": { "x": 201, "y": 280, "w": 54, "h": 49 },
      "rotated": false,
      "trimmed": true,
      "spriteSourceSize": { "x": 25, "y": 10, "w": 54, "h": 49 },
      "sourceSize": { "w": 117, "h": 109 },
      "pivot": { "x": 0.5, "y": 0.5 }
    },
    "Normal_Coins_IN_0018.png": {
      "frame": { "x": 195, "y": 432, "w": 58, "h": 53 },
      "rotated": false,
      "trimmed": true,
      "spriteSourceSize": { "x": 23, "y": 10, "w": 58, "h": 53 },
      "sourceSize": { "w": 117, "h": 109 },
      "pivot": { "x": 0.5, "y": 0.5 }
    },
    "Normal_Coins_IN_0020.png": {
      "frame": { "x": 188, "y": 489, "w": 64, "h": 64 },
      "rotated": false,
      "trimmed": true,
      "spriteSourceSize": { "x": 19, "y": 7, "w": 64, "h": 64 },
      "sourceSize": { "w": 117, "h": 109 },
      "pivot": { "x": 0.5, "y": 0.5 }
    },
    "Normal_Coins_IN_0022.png": {
      "frame": { "x": 187, "y": 617, "w": 69, "h": 76 },
      "rotated": false,
      "trimmed": true,
      "spriteSourceSize": { "x": 16, "y": 4, "w": 69, "h": 76 },
      "sourceSize": { "w": 117, "h": 109 },
      "pivot": { "x": 0.5, "y": 0.5 }
    },
    "Normal_Coins_IN_0024.png": {
      "frame": { "x": 78, "y": 977, "w": 73, "h": 92 },
      "rotated": false,
      "trimmed": true,
      "spriteSourceSize": { "x": 14, "y": 0, "w": 73, "h": 92 },
      "sourceSize": { "w": 117, "h": 109 },
      "pivot": { "x": 0.5, "y": 0.5 }
    },
    "Normal_Coins_IN_0026.png": {
      "frame": { "x": 87, "y": 871, "w": 75, "h": 102 },
      "rotated": false,
      "trimmed": true,
      "spriteSourceSize": { "x": 13, "y": 0, "w": 75, "h": 102 },
      "sourceSize": { "w": 117, "h": 109 },
      "pivot": { "x": 0.5, "y": 0.5 }
    },
    "Normal_Coins_IN_0028.png": {
      "frame": { "x": 91, "y": 666, "w": 85, "h": 107 },
      "rotated": false,
      "trimmed": true,
      "spriteSourceSize": { "x": 8, "y": 2, "w": 85, "h": 107 },
      "sourceSize": { "w": 117, "h": 109 },
      "pivot": { "x": 0.5, "y": 0.5 }
    },
    "Normal_Coins_IN_0030.png": {
      "frame": { "x": 0, "y": 382, "w": 90, "h": 103 },
      "rotated": false,
      "trimmed": true,
      "spriteSourceSize": { "x": 6, "y": 6, "w": 90, "h": 103 },
      "sourceSize": { "w": 117, "h": 109 },
      "pivot": { "x": 0.5, "y": 0.5 }
    },
    "Normal_Coins_LOOP_0000.png": {
      "frame": { "x": 94, "y": 468, "w": 90, "h": 99 },
      "rotated": false,
      "trimmed": true,
      "spriteSourceSize": { "x": 6, "y": 9, "w": 90, "h": 99 },
      "sourceSize": { "w": 117, "h": 109 },
      "pivot": { "x": 0.5, "y": 0.5 }
    },
    "Normal_Coins_LOOP_0002.png": {
      "frame": { "x": 102, "y": 280, "w": 95, "h": 82 },
      "rotated": false,
      "trimmed": true,
      "spriteSourceSize": { "x": 4, "y": 12, "w": 95, "h": 82 },
      "sourceSize": { "w": 117, "h": 109 },
      "pivot": { "x": 0.5, "y": 0.5 }
    },
    "Normal_Coins_LOOP_0004.png": {
      "frame": { "x": 109, "y": 0, "w": 103, "h": 96 },
      "rotated": false,
      "trimmed": true,
      "spriteSourceSize": { "x": 0, "y": 13, "w": 103, "h": 96 },
      "sourceSize": { "w": 117, "h": 109 },
      "pivot": { "x": 0.5, "y": 0.5 }
    },
    "Normal_Coins_LOOP_0006.png": {
      "frame": { "x": 0, "y": 790, "w": 83, "h": 83 },
      "rotated": false,
      "trimmed": true,
      "spriteSourceSize": { "x": 24, "y": 15, "w": 83, "h": 83 },
      "sourceSize": { "w": 117, "h": 109 },
      "pivot": { "x": 0.5, "y": 0.5 }
    },
    "Normal_Coins_LOOP_0008.png": {
      "frame": { "x": 0, "y": 582, "w": 87, "h": 93 },
      "rotated": false,
      "trimmed": true,
      "spriteSourceSize": { "x": 23, "y": 16, "w": 87, "h": 93 },
      "sourceSize": { "w": 117, "h": 109 },
      "pivot": { "x": 0.5, "y": 0.5 }
    },
    "Normal_Coins_LOOP_0010.png": {
      "frame": { "x": 0, "y": 489, "w": 90, "h": 89 },
      "rotated": false,
      "trimmed": true,
      "spriteSourceSize": { "x": 23, "y": 20, "w": 90, "h": 89 },
      "sourceSize": { "w": 117, "h": 109 },
      "pivot": { "x": 0.5, "y": 0.5 }
    },
    "Normal_Coins_LOOP_0012.png": {
      "frame": { "x": 105, "y": 186, "w": 99, "h": 90 },
      "rotated": false,
      "trimmed": true,
      "spriteSourceSize": { "x": 18, "y": 17, "w": 99, "h": 90 },
      "sourceSize": { "w": 117, "h": 109 },
      "pivot": { "x": 0.5, "y": 0.5 }
    },
    "Normal_Coins_LOOP_0014.png": {
      "frame": { "x": 0, "y": 99, "w": 101, "h": 96 },
      "rotated": false,
      "trimmed": true,
      "spriteSourceSize": { "x": 15, "y": 13, "w": 101, "h": 96 },
      "sourceSize": { "w": 117, "h": 109 },
      "pivot": { "x": 0.5, "y": 0.5 }
    },
    "Normal_Coins_LOOP_0016.png": {
      "frame": { "x": 0, "y": 1056, "w": 72, "h": 99 },
      "rotated": false,
      "trimmed": true,
      "spriteSourceSize": { "x": 15, "y": 10, "w": 72, "h": 99 },
      "sourceSize": { "w": 117, "h": 109 },
      "pivot": { "x": 0.5, "y": 0.5 }
    },
    "Normal_Coins_LOOP_0018.png": {
      "frame": { "x": 0, "y": 953, "w": 74, "h": 99 },
      "rotated": false,
      "trimmed": true,
      "spriteSourceSize": { "x": 15, "y": 10, "w": 74, "h": 99 },
      "sourceSize": { "w": 117, "h": 109 },
      "pivot": { "x": 0.5, "y": 0.5 }
    },
    "Normal_Coins_LOOP_0020.png": {
      "frame": { "x": 76, "y": 1073, "w": 71, "h": 102 },
      "rotated": false,
      "trimmed": true,
      "spriteSourceSize": { "x": 19, "y": 7, "w": 71, "h": 102 },
      "sourceSize": { "w": 117, "h": 109 },
      "pivot": { "x": 0.5, "y": 0.5 }
    },
    "Normal_Coins_LOOP_0022.png": {
      "frame": { "x": 177, "y": 810, "w": 75, "h": 105 },
      "rotated": false,
      "trimmed": true,
      "spriteSourceSize": { "x": 16, "y": 4, "w": 75, "h": 105 },
      "sourceSize": { "w": 117, "h": 109 },
      "pivot": { "x": 0.5, "y": 0.5 }
    },
    "Normal_Coins_LOOP_0024.png": {
      "frame": { "x": 166, "y": 919, "w": 73, "h": 109 },
      "rotated": false,
      "trimmed": true,
      "spriteSourceSize": { "x": 14, "y": 0, "w": 73, "h": 109 },
      "sourceSize": { "w": 117, "h": 109 },
      "pivot": { "x": 0.5, "y": 0.5 }
    },
    "Normal_Coins_LOOP_0026.png": {
      "frame": { "x": 180, "y": 697, "w": 75, "h": 109 },
      "rotated": false,
      "trimmed": true,
      "spriteSourceSize": { "x": 13, "y": 0, "w": 75, "h": 109 },
      "sourceSize": { "w": 117, "h": 109 },
      "pivot": { "x": 0.5, "y": 0.5 }
    },
    "Normal_Coins_LOOP_0028.png": {
      "frame": { "x": 0, "y": 679, "w": 85, "h": 107 },
      "rotated": false,
      "trimmed": true,
      "spriteSourceSize": { "x": 8, "y": 2, "w": 85, "h": 107 },
      "sourceSize": { "w": 117, "h": 109 },
      "pivot": { "x": 0.5, "y": 0.5 }
    },
    "Normal_Coins_OUT_0000.png": {
      "frame": { "x": 0, "y": 382, "w": 90, "h": 103 },
      "rotated": false,
      "trimmed": true,
      "spriteSourceSize": { "x": 6, "y": 6, "w": 90, "h": 103 },
      "sourceSize": { "w": 117, "h": 109 },
      "pivot": { "x": 0.5, "y": 0.5 }
    },
    "Normal_Coins_OUT_0002.png": {
      "frame": { "x": 98, "y": 366, "w": 93, "h": 98 },
      "rotated": false,
      "trimmed": true,
      "spriteSourceSize": { "x": 5, "y": 11, "w": 93, "h": 98 },
      "sourceSize": { "w": 117, "h": 109 },
      "pivot": { "x": 0.5, "y": 0.5 }
    },
    "Normal_Coins_OUT_0004.png": {
      "frame": { "x": 0, "y": 199, "w": 98, "h": 89 },
      "rotated": false,
      "trimmed": true,
      "spriteSourceSize": { "x": 3, "y": 13, "w": 98, "h": 89 },
      "sourceSize": { "w": 117, "h": 109 },
      "pivot": { "x": 0.5, "y": 0.5 }
    },
    "Normal_Coins_OUT_0006.png": {
      "frame": { "x": 0, "y": 0, "w": 105, "h": 95 },
      "rotated": false,
      "trimmed": true,
      "spriteSourceSize": { "x": 0, "y": 14, "w": 105, "h": 95 },
      "sourceSize": { "w": 117, "h": 109 },
      "pivot": { "x": 0.5, "y": 0.5 }
    },
    "Normal_Coins_OUT_0008.png": {
      "frame": { "x": 89, "y": 777, "w": 84, "h": 90 },
      "rotated": false,
      "trimmed": true,
      "spriteSourceSize": { "x": 24, "y": 15, "w": 84, "h": 90 },
      "sourceSize": { "w": 117, "h": 109 },
      "pivot": { "x": 0.5, "y": 0.5 }
    },
    "Normal_Coins_OUT_0010.png": {
      "frame": { "x": 94, "y": 571, "w": 89, "h": 91 },
      "rotated": false,
      "trimmed": true,
      "spriteSourceSize": { "x": 23, "y": 18, "w": 89, "h": 91 },
      "sourceSize": { "w": 117, "h": 109 },
      "pivot": { "x": 0.5, "y": 0.5 }
    },
    "Normal_Coins_OUT_0012.png": {
      "frame": { "x": 0, "y": 292, "w": 94, "h": 86 },
      "rotated": false,
      "trimmed": true,
      "spriteSourceSize": { "x": 21, "y": 23, "w": 94, "h": 86 },
      "sourceSize": { "w": 117, "h": 109 },
      "pivot": { "x": 0.5, "y": 0.5 }
    },
    "Normal_Coins_OUT_0014.png": {
      "frame": { "x": 105, "y": 100, "w": 100, "h": 82 },
      "rotated": false,
      "trimmed": true,
      "spriteSourceSize": { "x": 17, "y": 27, "w": 100, "h": 82 },
      "sourceSize": { "w": 117, "h": 109 },
      "pivot": { "x": 0.5, "y": 0.5 }
    },
    "Normal_Coins_OUT_0016.png": {
      "frame": { "x": 155, "y": 1032, "w": 72, "h": 72 },
      "rotated": false,
      "trimmed": true,
      "spriteSourceSize": { "x": 15, "y": 33, "w": 72, "h": 72 },
      "sourceSize": { "w": 117, "h": 109 },
      "pivot": { "x": 0.5, "y": 0.5 }
    },
    "Normal_Coins_OUT_0018.png": {
      "frame": { "x": 0, "y": 877, "w": 75, "h": 72 },
      "rotated": false,
      "trimmed": true,
      "spriteSourceSize": { "x": 14, "y": 37, "w": 75, "h": 72 },
      "sourceSize": { "w": 117, "h": 109 },
      "pivot": { "x": 0.5, "y": 0.5 }
    },
    "Normal_Coins_OUT_0020.png": {
      "frame": { "x": 0, "y": 1159, "w": 71, "h": 64 },
      "rotated": false,
      "trimmed": true,
      "spriteSourceSize": { "x": 19, "y": 45, "w": 71, "h": 64 },
      "sourceSize": { "w": 117, "h": 109 },
      "pivot": { "x": 0.5, "y": 0.5 }
    },
    "Normal_Coins_OUT_0022.png": {
      "frame": { "x": 188, "y": 557, "w": 62, "h": 56 },
      "rotated": false,
      "trimmed": true,
      "spriteSourceSize": { "x": 29, "y": 52, "w": 62, "h": 56 },
      "sourceSize": { "w": 117, "h": 109 },
      "pivot": { "x": 0.5, "y": 0.5 }
    },
    "Normal_Coins_OUT_0024.png": {
      "frame": { "x": 151, "y": 1108, "w": 56, "h": 48 },
      "rotated": false,
      "trimmed": true,
      "spriteSourceSize": { "x": 26, "y": 61, "w": 56, "h": 48 },
      "sourceSize": { "w": 117, "h": 109 },
      "pivot": { "x": 0.5, "y": 0.5 }
    },
    "Normal_Coins_OUT_0026.png": {
      "frame": { "x": 195, "y": 391, "w": 60, "h": 37 },
      "rotated": false,
      "trimmed": true,
      "spriteSourceSize": { "x": 24, "y": 72, "w": 60, "h": 37 },
      "sourceSize": { "w": 117, "h": 109 },
      "pivot": { "x": 0.5, "y": 0.5 }
    },
    "Normal_Coins_OUT_0028.png": {
      "frame": { "x": 195, "y": 366, "w": 61, "h": 21 },
      "rotated": false,
      "trimmed": true,
      "spriteSourceSize": { "x": 25, "y": 85, "w": 61, "h": 21 },
      "sourceSize": { "w": 117, "h": 109 },
      "pivot": { "x": 0.5, "y": 0.5 }
    },
    "Normal_Coins_OUT_0030.png": {
      "frame": { "x": 242, "y": 128, "w": 11, "h": 9 },
      "rotated": false,
      "trimmed": true,
      "spriteSourceSize": { "x": 25, "y": 99, "w": 11, "h": 9 },
      "sourceSize": { "w": 117, "h": 109 },
      "pivot": { "x": 0.5, "y": 0.5 }
    }
  },
  "meta": {
    "app": "http://www.codeandweb.com/texturepacker",
    "version": "1.0",
    "image": "coins_anim_d-mini_0.png",
    "format": "INDEXED",
    "size": { "w": 256, "h": 2048 },
    "scale": "0.23",
    "smartupdate": "$TexturePacker:SmartUpdate:59b8488ce46ddb19f6189e9bb9c485f4:0b07ea9ded741313c4b9f772010d0df1:aa27886a4fa47046e0359f8468415a7f$"
  }
}
